%!PS-Adobe-3.0
/Helvetica findfont 10 scalefont setfont
newpath
[] 0 setdash 1.0000 setlinewidth
10.0000	10.0000	moveto
10.0000	10.0000	lineto
10.2497	10.2497	lineto
10.4993	10.4993	lineto
10.7490	10.7490	lineto
10.9987	10.9987	lineto
11.2484	11.2484	lineto
11.4980	11.4980	lineto
11.7477	11.7477	lineto
11.9974	11.9974	lineto
12.2470	12.2470	lineto
12.4967	12.4967	lineto
12.7464	12.7464	lineto
12.9961	12.9961	lineto
13.2457	13.2457	lineto
13.4954	13.4954	lineto
13.7451	13.7451	lineto
13.9947	13.9947	lineto
14.2444	14.2444	lineto
14.4941	14.4941	lineto
14.7438	14.7438	lineto
14.9934	14.9934	lineto
15.2431	15.2431	lineto
15.4928	15.4928	lineto
15.7424	15.7424	lineto
15.9921	15.9921	lineto
16.2418	16.2418	lineto
16.4915	16.4915	lineto
16.7411	16.7411	lineto
16.9908	16.9908	lineto
17.2405	17.2405	lineto
17.4901	17.4901	lineto
17.7398	17.7398	lineto
17.9895	17.9895	lineto
18.2392	18.2392	lineto
18.4888	18.4888	lineto
18.7385	18.7385	lineto
18.9882	18.9882	lineto
19.2378	19.2378	lineto
19.4875	19.4875	lineto
19.7372	19.7372	lineto
19.9869	19.9869	lineto
20.2365	20.2365	lineto
20.4862	20.4862	lineto
20.7359	20.7359	lineto
20.9855	20.9855	lineto
21.2352	21.2352	lineto
21.4849	21.4849	lineto
21.7346	21.7346	lineto
21.9842	21.9842	lineto
22.2339	22.2339	lineto
22.4836	22.4836	lineto
22.7332	22.7332	lineto
22.9829	22.9829	lineto
23.2326	23.2326	lineto
23.4823	23.4823	lineto
23.7319	23.7319	lineto
23.9816	23.9816	lineto
24.2313	24.2313	lineto
24.4809	24.4809	lineto
24.7306	24.7306	lineto
24.9803	24.9803	lineto
25.2300	25.2300	lineto
25.4796	25.4796	lineto
25.7293	25.7293	lineto
25.9790	25.9790	lineto
26.2286	26.2286	lineto
26.4783	26.4783	lineto
26.7280	26.7280	lineto
26.9777	26.9777	lineto
27.2273	27.2273	lineto
27.4770	27.4770	lineto
27.7267	27.7267	lineto
27.9763	27.9763	lineto
28.2260	28.2260	lineto
28.4757	28.4757	lineto
28.7254	28.7254	lineto
28.9750	28.9750	lineto
29.2247	29.2247	lineto
29.4744	29.4744	lineto
29.7240	29.7240	lineto
29.9737	29.9737	lineto
30.2234	30.2234	lineto
30.4731	30.4731	lineto
30.7227	30.7227	lineto
30.9724	30.9724	lineto
31.2221	31.2221	lineto
31.4717	31.4717	lineto
31.7214	31.7214	lineto
31.9711	31.9711	lineto
32.2208	32.2208	lineto
32.4704	32.4704	lineto
32.7201	32.7201	lineto
32.9698	32.9698	lineto
33.2194	33.2194	lineto
33.4691	33.4691	lineto
33.7188	33.7188	lineto
33.9685	33.9685	lineto
34.2181	34.2181	lineto
34.4678	34.4678	lineto
34.7175	34.7175	lineto
34.9671	34.9671	lineto
35.2168	35.2168	lineto
35.4665	35.4665	lineto
35.7162	35.7162	lineto
35.9658	35.9658	lineto
36.2155	36.2155	lineto
36.4652	36.4652	lineto
36.7148	36.7148	lineto
36.9645	36.9645	lineto
37.2142	37.2142	lineto
37.4639	37.4639	lineto
37.7135	37.7135	lineto
37.9632	37.9632	lineto
38.2129	38.2129	lineto
38.4625	38.4625	lineto
38.7122	38.7122	lineto
38.9619	38.9619	lineto
39.2116	39.2116	lineto
39.4612	39.4612	lineto
39.7109	39.7109	lineto
39.9606	39.9606	lineto
40.2102	40.2102	lineto
40.4599	40.4599	lineto
40.7096	40.7096	lineto
40.9593	40.9593	lineto
41.2089	41.2089	lineto
41.4586	41.4586	lineto
41.7083	41.7083	lineto
41.9580	41.9580	lineto
42.2076	42.2076	lineto
42.4573	42.4573	lineto
42.7070	42.7070	lineto
42.9566	42.9566	lineto
43.2063	43.2063	lineto
43.4560	43.4560	lineto
43.7057	43.7057	lineto
43.9553	43.9553	lineto
44.2050	44.2050	lineto
44.4547	44.4547	lineto
44.7043	44.7043	lineto
44.9540	44.9540	lineto
45.2037	45.2037	lineto
45.4534	45.4534	lineto
45.7030	45.7030	lineto
45.9527	45.9527	lineto
46.2024	46.2024	lineto
46.4520	46.4520	lineto
46.7017	46.7017	lineto
46.9514	46.9514	lineto
47.2011	47.2011	lineto
47.4507	47.4507	lineto
47.7004	47.7004	lineto
47.9501	47.9501	lineto
48.1997	48.1997	lineto
48.4494	48.4494	lineto
48.6991	48.6991	lineto
48.9488	48.9488	lineto
49.1984	49.1984	lineto
49.4481	49.4481	lineto
49.6978	49.6978	lineto
49.9474	49.9474	lineto
50.1971	50.1971	lineto
50.4468	50.4468	lineto
50.6965	50.6965	lineto
50.9461	50.9461	lineto
51.1958	51.1958	lineto
51.4455	51.4455	lineto
51.6951	51.6951	lineto
51.9448	51.9448	lineto
52.1945	52.1945	lineto
52.4442	52.4442	lineto
52.6938	52.6938	lineto
52.9435	52.9435	lineto
53.1932	53.1932	lineto
53.4428	53.4428	lineto
53.6925	53.6925	lineto
53.9422	53.9422	lineto
54.1919	54.1919	lineto
54.4415	54.4415	lineto
54.6912	54.6912	lineto
54.9409	54.9409	lineto
55.1905	55.1905	lineto
55.4402	55.4402	lineto
55.6899	55.6899	lineto
55.9396	55.9396	lineto
56.1892	56.1892	lineto
56.4389	56.4389	lineto
56.6886	56.6886	lineto
56.9382	56.9382	lineto
57.1879	57.1879	lineto
57.4376	57.4376	lineto
57.6873	57.6873	lineto
57.9369	57.9369	lineto
58.1866	58.1866	lineto
58.4363	58.4363	lineto
58.6859	58.6859	lineto
58.9356	58.9356	lineto
59.1853	59.1853	lineto
59.4350	59.4350	lineto
59.6846	59.6846	lineto
59.9343	59.9343	lineto
60.1840	60.1840	lineto
60.4336	60.4336	lineto
60.6833	60.6833	lineto
60.9330	60.9330	lineto
61.1827	61.1827	lineto
61.4323	61.4323	lineto
61.6820	61.6820	lineto
61.9317	61.9317	lineto
62.1813	62.1813	lineto
62.4310	62.4310	lineto
62.6807	62.6807	lineto
62.9304	62.9304	lineto
63.1800	63.1800	lineto
63.4297	63.4297	lineto
63.6794	63.6794	lineto
63.9290	63.9290	lineto
64.1787	64.1787	lineto
64.4284	64.4284	lineto
64.6781	64.6781	lineto
64.9277	64.9277	lineto
65.1774	65.1774	lineto
65.4271	65.4271	lineto
65.6767	65.6767	lineto
65.9264	65.9264	lineto
66.1761	66.1761	lineto
66.4258	66.4258	lineto
66.6754	66.6754	lineto
66.9251	66.9251	lineto
67.1748	67.1748	lineto
67.4244	67.4244	lineto
67.6741	67.6741	lineto
67.9238	67.9238	lineto
68.1735	68.1735	lineto
68.4231	68.4231	lineto
68.6728	68.6728	lineto
68.9225	68.9225	lineto
69.1721	69.1721	lineto
69.4218	69.4218	lineto
69.6715	69.6715	lineto
69.9212	69.9212	lineto
70.1708	70.1708	lineto
70.4205	70.4205	lineto
70.6702	70.6702	lineto
70.9198	70.9198	lineto
71.1695	71.1695	lineto
71.4192	71.4192	lineto
71.6689	71.6689	lineto
71.9185	71.9185	lineto
72.1682	72.1682	lineto
72.4179	72.4179	lineto
72.6675	72.6675	lineto
72.9172	72.9172	lineto
73.1669	73.1669	lineto
73.4166	73.4166	lineto
73.6662	73.6662	lineto
73.9159	73.9159	lineto
74.1656	74.1656	lineto
74.4152	74.4152	lineto
74.6649	74.6649	lineto
74.9146	74.9146	lineto
75.1643	75.1643	lineto
75.4139	75.4139	lineto
75.6636	75.6636	lineto
75.9133	75.9133	lineto
76.1629	76.1629	lineto
76.4126	76.4126	lineto
76.6623	76.6623	lineto
76.9120	76.9120	lineto
77.1616	77.1616	lineto
77.4113	77.4113	lineto
77.6610	77.6610	lineto
77.9106	77.9106	lineto
78.1603	78.1603	lineto
78.4100	78.4100	lineto
78.6597	78.6597	lineto
78.9093	78.9093	lineto
79.1590	79.1590	lineto
79.4087	79.4087	lineto
79.6583	79.6583	lineto
79.9080	79.9080	lineto
80.1577	80.1577	lineto
80.4074	80.4074	lineto
80.6570	80.6570	lineto
80.9067	80.9067	lineto
81.1564	81.1564	lineto
81.4060	81.4060	lineto
81.6557	81.6557	lineto
81.9054	81.9054	lineto
82.1551	82.1551	lineto
82.4047	82.4047	lineto
82.6544	82.6544	lineto
82.9041	82.9041	lineto
83.1537	83.1537	lineto
83.4034	83.4034	lineto
83.6531	83.6531	lineto
83.9028	83.9028	lineto
84.1524	84.1524	lineto
84.4021	84.4021	lineto
84.6518	84.6518	lineto
84.9014	84.9014	lineto
85.1511	85.1511	lineto
85.4008	85.4008	lineto
85.6505	85.6505	lineto
85.9001	85.9001	lineto
86.1498	86.1498	lineto
86.3995	86.3995	lineto
86.6491	86.6491	lineto
86.8988	86.8988	lineto
87.1485	87.1485	lineto
87.3982	87.3982	lineto
87.6478	87.6478	lineto
87.8975	87.8975	lineto
88.1472	88.1472	lineto
88.3968	88.3968	lineto
88.6465	88.6465	lineto
88.8962	88.8962	lineto
89.1459	89.1459	lineto
89.3955	89.3955	lineto
89.6452	89.6452	lineto
89.8949	89.8949	lineto
90.1445	90.1445	lineto
90.3942	90.3942	lineto
90.6439	90.6439	lineto
90.8936	90.8936	lineto
91.1432	91.1432	lineto
91.3929	91.3929	lineto
91.6426	91.6426	lineto
91.8922	91.8922	lineto
92.1419	92.1419	lineto
92.3916	92.3916	lineto
92.6413	92.6413	lineto
92.8909	92.8909	lineto
93.1406	93.1406	lineto
93.3903	93.3903	lineto
93.6399	93.6399	lineto
93.8896	93.8896	lineto
94.1393	94.1393	lineto
94.3890	94.3890	lineto
94.6386	94.6386	lineto
94.8883	94.8883	lineto
95.1380	95.1380	lineto
95.3876	95.3876	lineto
95.6373	95.6373	lineto
95.8870	95.8870	lineto
96.1367	96.1367	lineto
96.3863	96.3863	lineto
96.6360	96.6360	lineto
96.8857	96.8857	lineto
97.1353	97.1353	lineto
97.3850	97.3850	lineto
97.6347	97.6347	lineto
97.8844	97.8844	lineto
98.1340	98.1340	lineto
98.3837	98.3837	lineto
98.6334	98.6334	lineto
98.8830	98.8830	lineto
99.1327	99.1327	lineto
99.3824	99.3824	lineto
99.6321	99.6321	lineto
99.8817	99.8817	lineto
100.1314	100.1314	lineto
100.3811	100.3811	lineto
100.6307	100.6307	lineto
100.8804	100.8804	lineto
101.1301	101.1301	lineto
101.3798	101.3798	lineto
101.6294	101.6294	lineto
101.8791	101.8791	lineto
102.1288	102.1288	lineto
102.3784	102.3784	lineto
102.6281	102.6281	lineto
102.8778	102.8778	lineto
103.1275	103.1275	lineto
103.3771	103.3771	lineto
103.6268	103.6268	lineto
103.8765	103.8765	lineto
104.1261	104.1261	lineto
104.3758	104.3758	lineto
104.6255	104.6255	lineto
104.8752	104.8752	lineto
105.1248	105.1248	lineto
105.3745	105.3745	lineto
105.6242	105.6242	lineto
105.8739	105.8739	lineto
106.1235	106.1235	lineto
106.3732	106.3732	lineto
106.6229	106.6229	lineto
106.8725	106.8725	lineto
107.1222	107.1222	lineto
107.3719	107.3719	lineto
107.6216	107.6216	lineto
107.8712	107.8712	lineto
108.1209	108.1209	lineto
108.3706	108.3706	lineto
108.6202	108.6202	lineto
108.8699	108.8699	lineto
109.1196	109.1196	lineto
109.3693	109.3693	lineto
109.6189	109.6189	lineto
109.8686	109.8686	lineto
110.1183	110.1183	lineto
110.3679	110.3679	lineto
110.6176	110.6176	lineto
110.8673	110.8673	lineto
111.1170	111.1170	lineto
111.3666	111.3666	lineto
111.6163	111.6163	lineto
111.8660	111.8660	lineto
112.1156	112.1156	lineto
112.3653	112.3653	lineto
112.6150	112.6150	lineto
112.8647	112.8647	lineto
113.1143	113.1143	lineto
113.3640	113.3640	lineto
113.6137	113.6137	lineto
113.8633	113.8633	lineto
114.1130	114.1130	lineto
114.3627	114.3627	lineto
114.6124	114.6124	lineto
114.8620	114.8620	lineto
115.1117	115.1117	lineto
115.3614	115.3614	lineto
115.6110	115.6110	lineto
115.8607	115.8607	lineto
116.1104	116.1104	lineto
116.3601	116.3601	lineto
116.6097	116.6097	lineto
116.8594	116.8594	lineto
117.1091	117.1091	lineto
117.3587	117.3587	lineto
117.6084	117.6084	lineto
117.8581	117.8581	lineto
118.1078	118.1078	lineto
118.3574	118.3574	lineto
118.6071	118.6071	lineto
118.8568	118.8568	lineto
119.1064	119.1064	lineto
119.3561	119.3561	lineto
119.6058	119.6058	lineto
119.8555	119.8555	lineto
120.1051	120.1051	lineto
120.3548	120.3548	lineto
120.6045	120.6045	lineto
120.8541	120.8541	lineto
121.1038	121.1038	lineto
121.3535	121.3535	lineto
121.6032	121.6032	lineto
121.8528	121.8528	lineto
122.1025	122.1025	lineto
122.3522	122.3522	lineto
122.6018	122.6018	lineto
122.8515	122.8515	lineto
123.1012	123.1012	lineto
123.3509	123.3509	lineto
123.6005	123.6005	lineto
123.8502	123.8502	lineto
124.0999	124.0999	lineto
124.3495	124.3495	lineto
124.5992	124.5992	lineto
124.8489	124.8489	lineto
125.0986	125.0986	lineto
125.3482	125.3482	lineto
125.5979	125.5979	lineto
125.8476	125.8476	lineto
126.0972	126.0972	lineto
126.3469	126.3469	lineto
126.5966	126.5966	lineto
126.8463	126.8463	lineto
127.0959	127.0959	lineto
127.3456	127.3456	lineto
127.5953	127.5953	lineto
127.8449	127.8449	lineto
128.0946	128.0946	lineto
128.3443	128.3443	lineto
128.5940	128.5940	lineto
128.8436	128.8436	lineto
129.0933	129.0933	lineto
129.3430	129.3430	lineto
129.5926	129.5926	lineto
129.8423	129.8423	lineto
130.0920	130.0920	lineto
130.3417	130.3417	lineto
130.5913	130.5913	lineto
130.8410	130.8410	lineto
131.0907	131.0907	lineto
131.3403	131.3403	lineto
131.5900	131.5900	lineto
131.8397	131.8397	lineto
132.0894	132.0894	lineto
132.3390	132.3390	lineto
132.5887	132.5887	lineto
132.8384	132.8384	lineto
133.0880	133.0880	lineto
133.3377	133.3377	lineto
133.5874	133.5874	lineto
133.8371	133.8371	lineto
134.0867	134.0867	lineto
134.3364	134.3364	lineto
134.5861	134.5861	lineto
134.8357	134.8357	lineto
135.0854	135.0854	lineto
135.3351	135.3351	lineto
135.5848	135.5848	lineto
135.8344	135.8344	lineto
136.0841	136.0841	lineto
136.3338	136.3338	lineto
136.5834	136.5834	lineto
136.8331	136.8331	lineto
137.0828	137.0828	lineto
137.3325	137.3325	lineto
137.5821	137.5821	lineto
137.8318	137.8318	lineto
138.0815	138.0815	lineto
138.3311	138.3311	lineto
138.5808	138.5808	lineto
138.8305	138.8305	lineto
139.0802	139.0802	lineto
139.3298	139.3298	lineto
139.5795	139.5795	lineto
139.8292	139.8292	lineto
140.0788	140.0788	lineto
140.3285	140.3285	lineto
140.5782	140.5782	lineto
140.8279	140.8279	lineto
141.0775	141.0775	lineto
141.3272	141.3272	lineto
141.5769	141.5769	lineto
141.8265	141.8265	lineto
142.0762	142.0762	lineto
142.3259	142.3259	lineto
142.5756	142.5756	lineto
142.8252	142.8252	lineto
143.0749	143.0749	lineto
143.3246	143.3246	lineto
143.5742	143.5742	lineto
143.8239	143.8239	lineto
144.0736	144.0736	lineto
144.3233	144.3233	lineto
144.5729	144.5729	lineto
144.8226	144.8226	lineto
145.0723	145.0723	lineto
145.3219	145.3219	lineto
145.5716	145.5716	lineto
145.8213	145.8213	lineto
146.0710	146.0710	lineto
146.3206	146.3206	lineto
146.5703	146.5703	lineto
146.8200	146.8200	lineto
147.0696	147.0696	lineto
147.3193	147.3193	lineto
147.5690	147.5690	lineto
147.8187	147.8187	lineto
148.0683	148.0683	lineto
148.3180	148.3180	lineto
148.5677	148.5677	lineto
148.8173	148.8173	lineto
149.0670	149.0670	lineto
149.3167	149.3167	lineto
149.5664	149.5664	lineto
149.8160	149.8160	lineto
150.0657	150.0657	lineto
150.3154	150.3154	lineto
150.5650	150.5650	lineto
150.8147	150.8147	lineto
151.0644	151.0644	lineto
151.3141	151.3141	lineto
151.5637	151.5637	lineto
151.8134	151.8134	lineto
152.0631	152.0631	lineto
152.3127	152.3127	lineto
152.5624	152.5624	lineto
152.8121	152.8121	lineto
153.0618	153.0618	lineto
153.3114	153.3114	lineto
153.5611	153.5611	lineto
153.8108	153.8108	lineto
154.0604	154.0604	lineto
154.3101	154.3101	lineto
154.5598	154.5598	lineto
154.8095	154.8095	lineto
155.0591	155.0591	lineto
155.3088	155.3088	lineto
155.5585	155.5585	lineto
155.8081	155.8081	lineto
156.0578	156.0578	lineto
156.3075	156.3075	lineto
156.5572	156.5572	lineto
156.8068	156.8068	lineto
157.0565	157.0565	lineto
157.3062	157.3062	lineto
157.5558	157.5558	lineto
157.8055	157.8055	lineto
158.0552	158.0552	lineto
158.3049	158.3049	lineto
158.5545	158.5545	lineto
158.8042	158.8042	lineto
159.0539	159.0539	lineto
159.3035	159.3035	lineto
159.5532	159.5532	lineto
159.8029	159.8029	lineto
160.0526	160.0526	lineto
160.3022	160.3022	lineto
160.5519	160.5519	lineto
160.8016	160.8016	lineto
161.0512	161.0512	lineto
161.3009	161.3009	lineto
161.5506	161.5506	lineto
161.8003	161.8003	lineto
162.0499	162.0499	lineto
162.2996	162.2996	lineto
162.5493	162.5493	lineto
162.7989	162.7989	lineto
163.0486	163.0486	lineto
163.2983	163.2983	lineto
163.5480	163.5480	lineto
163.7976	163.7976	lineto
164.0473	164.0473	lineto
164.2970	164.2970	lineto
164.5466	164.5466	lineto
164.7963	164.7963	lineto
165.0460	165.0460	lineto
165.2957	165.2957	lineto
165.5453	165.5453	lineto
165.7950	165.7950	lineto
166.0447	166.0447	lineto
166.2943	166.2943	lineto
166.5440	166.5440	lineto
166.7937	166.7937	lineto
167.0434	167.0434	lineto
167.2930	167.2930	lineto
167.5427	167.5427	lineto
167.7924	167.7924	lineto
168.0420	168.0420	lineto
168.2917	168.2917	lineto
168.5414	168.5414	lineto
168.7911	168.7911	lineto
169.0407	169.0407	lineto
169.2904	169.2904	lineto
169.5401	169.5401	lineto
169.7898	169.7898	lineto
170.0394	170.0394	lineto
170.2891	170.2891	lineto
170.5388	170.5388	lineto
170.7884	170.7884	lineto
171.0381	171.0381	lineto
171.2878	171.2878	lineto
171.5375	171.5375	lineto
171.7871	171.7871	lineto
172.0368	172.0368	lineto
172.2865	172.2865	lineto
172.5361	172.5361	lineto
172.7858	172.7858	lineto
173.0355	173.0355	lineto
173.2852	173.2852	lineto
173.5348	173.5348	lineto
173.7845	173.7845	lineto
174.0342	174.0342	lineto
174.2838	174.2838	lineto
174.5335	174.5335	lineto
174.7832	174.7832	lineto
175.0329	175.0329	lineto
175.2825	175.2825	lineto
175.5322	175.5322	lineto
175.7819	175.7819	lineto
176.0315	176.0315	lineto
176.2812	176.2812	lineto
176.5309	176.5309	lineto
176.7806	176.7806	lineto
177.0302	177.0302	lineto
177.2799	177.2799	lineto
177.5296	177.5296	lineto
177.7792	177.7792	lineto
178.0289	178.0289	lineto
178.2786	178.2786	lineto
178.5283	178.5283	lineto
178.7779	178.7779	lineto
179.0276	179.0276	lineto
179.2773	179.2773	lineto
179.5269	179.5269	lineto
179.7766	179.7766	lineto
180.0263	180.0263	lineto
180.2760	180.2760	lineto
180.5256	180.5256	lineto
180.7753	180.7753	lineto
181.0250	181.0250	lineto
181.2746	181.2746	lineto
181.5243	181.5243	lineto
181.7740	181.7740	lineto
182.0237	182.0237	lineto
182.2733	182.2733	lineto
182.5230	182.5230	lineto
182.7727	182.7727	lineto
183.0223	183.0223	lineto
183.2720	183.2720	lineto
183.5217	183.5217	lineto
183.7714	183.7714	lineto
184.0210	184.0210	lineto
184.2707	184.2707	lineto
184.5204	184.5204	lineto
184.7700	184.7700	lineto
185.0197	185.0197	lineto
185.2694	185.2694	lineto
185.5191	185.5191	lineto
185.7687	185.7687	lineto
186.0184	186.0184	lineto
186.2681	186.2681	lineto
186.5177	186.5177	lineto
186.7674	186.7674	lineto
187.0171	187.0171	lineto
187.2668	187.2668	lineto
187.5164	187.5164	lineto
187.7661	187.7661	lineto
188.0158	188.0158	lineto
188.2654	188.2654	lineto
188.5151	188.5151	lineto
188.7648	188.7648	lineto
189.0145	189.0145	lineto
189.2641	189.2641	lineto
189.5138	189.5138	lineto
189.7635	189.7635	lineto
190.0131	190.0131	lineto
190.2628	190.2628	lineto
190.5125	190.5125	lineto
190.7622	190.7622	lineto
191.0118	191.0118	lineto
191.2615	191.2615	lineto
191.5112	191.5112	lineto
191.7608	191.7608	lineto
192.0105	192.0105	lineto
192.2602	192.2602	lineto
192.5099	192.5099	lineto
192.7595	192.7595	lineto
193.0092	193.0092	lineto
193.2589	193.2589	lineto
193.5085	193.5085	lineto
193.7582	193.7582	lineto
194.0079	194.0079	lineto
194.2576	194.2576	lineto
194.5072	194.5072	lineto
194.7569	194.7569	lineto
195.0066	195.0066	lineto
195.2562	195.2562	lineto
195.5059	195.5059	lineto
195.7556	195.7556	lineto
196.0053	196.0053	lineto
196.2549	196.2549	lineto
196.5046	196.5046	lineto
196.7543	196.7543	lineto
197.0039	197.0039	lineto
197.2536	197.2536	lineto
197.5033	197.5033	lineto
197.7530	197.7530	lineto
198.0026	198.0026	lineto
198.2523	198.2523	lineto
198.5020	198.5020	lineto
198.7516	198.7516	lineto
199.0013	199.0013	lineto
199.2510	199.2510	lineto
199.5007	199.5007	lineto
199.7503	199.7503	lineto
200.0000	200.0000	lineto
stroke
newpath
[] 0 setdash 0.5000 setlinewidth
10.0000	10.0000	moveto
73.3333	73.3333	lineto
136.6667	136.6667	lineto
200.0000	200.0000	lineto
stroke
0 setgray
newpath
10.0000	10.0000	3.0000	0.0000	360	arc
closepath
fill stroke
newpath
73.3333	73.3333	3.0000	0.0000	360	arc
closepath
1.0000	setlinewidth
stroke
newpath
136.6667	136.6667	3.0000	0.0000	360	arc
closepath
1.0000	setlinewidth
stroke
0 setgray
newpath
200.0000	200.0000	3.0000	0.0000	360	arc
closepath
fill stroke
showpage
