%!PS-Adobe-2.0 EPSF-2.0
%%BoundingBox: 76 92 304 308
%%HiResBoundingBox: 76.500000 92.500000 303.500000 307.500000
%%EndComments
% EPSF created by ps2eps 1.68
%%BeginProlog
save
countdictstack
mark
newpath
/showpage {} def
/setpagedevice {pop} def
%%EndProlog
%%Page 1 1
/Helvetica findfont 10 scalefont setfont
newpath
[] 0 setdash 1.0000 setlinewidth
300.0000	200.0000	moveto
300.0000	200.0000	lineto
299.9645	202.5345	lineto
299.8584	205.0674	lineto
299.6827	207.5973	lineto
299.4382	210.1228	lineto
299.1258	212.6421	lineto
298.7464	215.1540	lineto
298.3008	217.6568	lineto
297.7899	220.1490	lineto
297.2146	222.6292	lineto
296.5758	225.0958	lineto
295.8743	227.5473	lineto
295.1109	229.9822	lineto
294.2866	232.3991	lineto
293.4023	234.7963	lineto
292.4588	237.1725	lineto
291.4569	239.5260	lineto
290.3976	241.8554	lineto
289.2816	244.1591	lineto
288.1100	246.4357	lineto
286.8835	248.6837	lineto
285.6031	250.9015	lineto
284.2695	253.0876	lineto
282.8837	255.2406	lineto
281.4466	257.3589	lineto
279.9589	259.4410	lineto
278.4217	261.4854	lineto
276.8357	263.4906	lineto
275.2018	265.4551	lineto
273.5208	267.3774	lineto
271.7938	269.2559	lineto
270.0215	271.0892	lineto
268.2048	272.8758	lineto
266.3445	274.6141	lineto
264.4416	276.3026	lineto
262.4969	277.9399	lineto
260.5113	279.5244	lineto
258.4857	281.0546	lineto
256.4208	282.5291	lineto
254.3177	283.9462	lineto
252.1771	285.3045	lineto
250.0000	286.6025	lineto
250.0000	286.6025	lineto
247.7873	287.8390	lineto
245.5407	289.0136	lineto
243.2619	290.1264	lineto
240.9525	291.1774	lineto
238.6145	292.1665	lineto
236.2495	293.0939	lineto
233.8592	293.9594	lineto
231.4454	294.7631	lineto
229.0099	295.5049	lineto
226.5543	296.1850	lineto
224.0805	296.8032	lineto
221.5901	297.3596	lineto
219.0849	297.8542	lineto
216.5666	298.2869	lineto
214.0371	298.6579	lineto
211.4979	298.9670	lineto
208.9510	299.2143	lineto
206.3979	299.3997	lineto
203.8405	299.5234	lineto
201.2805	299.5852	lineto
198.7195	299.5852	lineto
196.1595	299.5234	lineto
193.6021	299.3997	lineto
191.0490	299.2143	lineto
188.5021	298.9670	lineto
185.9629	298.6579	lineto
183.4334	298.2869	lineto
180.9151	297.8542	lineto
178.4099	297.3596	lineto
175.9195	296.8032	lineto
173.4457	296.1850	lineto
170.9901	295.5049	lineto
168.5546	294.7631	lineto
166.1408	293.9594	lineto
163.7505	293.0939	lineto
161.3855	292.1665	lineto
159.0475	291.1774	lineto
156.7381	290.1264	lineto
154.4593	289.0136	lineto
152.2127	287.8390	lineto
150.0000	286.6025	lineto
150.0000	286.6025	lineto
147.8229	285.3045	lineto
145.6823	283.9462	lineto
143.5792	282.5291	lineto
141.5143	281.0546	lineto
139.4887	279.5244	lineto
137.5031	277.9399	lineto
135.5584	276.3026	lineto
133.6555	274.6141	lineto
131.7952	272.8758	lineto
129.9785	271.0892	lineto
128.2062	269.2559	lineto
126.4792	267.3774	lineto
124.7982	265.4551	lineto
123.1643	263.4906	lineto
121.5783	261.4854	lineto
120.0411	259.4410	lineto
118.5534	257.3589	lineto
117.1163	255.2406	lineto
115.7305	253.0876	lineto
114.3969	250.9015	lineto
113.1165	248.6837	lineto
111.8900	246.4357	lineto
110.7184	244.1591	lineto
109.6024	241.8554	lineto
108.5431	239.5260	lineto
107.5412	237.1725	lineto
106.5977	234.7963	lineto
105.7134	232.3991	lineto
104.8891	229.9822	lineto
104.1257	227.5473	lineto
103.4242	225.0958	lineto
102.7854	222.6292	lineto
102.2101	220.1490	lineto
101.6992	217.6568	lineto
101.2536	215.1540	lineto
100.8742	212.6421	lineto
100.5618	210.1228	lineto
100.3173	207.5973	lineto
100.1416	205.0674	lineto
100.0355	202.5345	lineto
100.0000	200.0000	lineto
100.0000	200.0000	lineto
100.0355	197.4655	lineto
100.1416	194.9326	lineto
100.3173	192.4027	lineto
100.5618	189.8772	lineto
100.8742	187.3579	lineto
101.2536	184.8460	lineto
101.6992	182.3432	lineto
102.2101	179.8510	lineto
102.7854	177.3708	lineto
103.4242	174.9042	lineto
104.1257	172.4527	lineto
104.8891	170.0178	lineto
105.7134	167.6009	lineto
106.5977	165.2037	lineto
107.5412	162.8275	lineto
108.5431	160.4740	lineto
109.6024	158.1446	lineto
110.7184	155.8409	lineto
111.8900	153.5643	lineto
113.1165	151.3163	lineto
114.3969	149.0985	lineto
115.7305	146.9124	lineto
117.1163	144.7594	lineto
118.5534	142.6411	lineto
120.0411	140.5590	lineto
121.5783	138.5146	lineto
123.1643	136.5094	lineto
124.7982	134.5449	lineto
126.4792	132.6226	lineto
128.2062	130.7441	lineto
129.9785	128.9108	lineto
131.7952	127.1242	lineto
133.6555	125.3859	lineto
135.5584	123.6974	lineto
137.5031	122.0601	lineto
139.4887	120.4756	lineto
141.5143	118.9454	lineto
143.5792	117.4709	lineto
145.6823	116.0538	lineto
147.8229	114.6955	lineto
150.0000	113.3975	lineto
150.0000	113.3975	lineto
152.2127	112.1610	lineto
154.4593	110.9864	lineto
156.7381	109.8736	lineto
159.0475	108.8226	lineto
161.3855	107.8335	lineto
163.7505	106.9061	lineto
166.1408	106.0406	lineto
168.5546	105.2369	lineto
170.9901	104.4951	lineto
173.4457	103.8150	lineto
175.9195	103.1968	lineto
178.4099	102.6404	lineto
180.9151	102.1458	lineto
183.4334	101.7131	lineto
185.9629	101.3421	lineto
188.5021	101.0330	lineto
191.0490	100.7857	lineto
193.6021	100.6003	lineto
196.1595	100.4766	lineto
198.7195	100.4148	lineto
201.2805	100.4148	lineto
203.8405	100.4766	lineto
206.3979	100.6003	lineto
208.9510	100.7857	lineto
211.4979	101.0330	lineto
214.0371	101.3421	lineto
216.5666	101.7131	lineto
219.0849	102.1458	lineto
221.5901	102.6404	lineto
224.0805	103.1968	lineto
226.5543	103.8150	lineto
229.0099	104.4951	lineto
231.4454	105.2369	lineto
233.8592	106.0406	lineto
236.2495	106.9061	lineto
238.6145	107.8335	lineto
240.9525	108.8226	lineto
243.2619	109.8736	lineto
245.5407	110.9864	lineto
247.7873	112.1610	lineto
250.0000	113.3975	lineto
250.0000	113.3975	lineto
252.1771	114.6955	lineto
254.3177	116.0538	lineto
256.4208	117.4709	lineto
258.4857	118.9454	lineto
260.5113	120.4756	lineto
262.4969	122.0601	lineto
264.4416	123.6974	lineto
266.3445	125.3859	lineto
268.2048	127.1242	lineto
270.0215	128.9108	lineto
271.7938	130.7441	lineto
273.5208	132.6226	lineto
275.2018	134.5449	lineto
276.8357	136.5094	lineto
278.4217	138.5146	lineto
279.9589	140.5590	lineto
281.4466	142.6411	lineto
282.8837	144.7594	lineto
284.2695	146.9124	lineto
285.6031	149.0985	lineto
286.8835	151.3163	lineto
288.1100	153.5643	lineto
289.2816	155.8409	lineto
290.3976	158.1446	lineto
291.4569	160.4740	lineto
292.4588	162.8275	lineto
293.4023	165.2037	lineto
294.2866	167.6009	lineto
295.1109	170.0178	lineto
295.8743	172.4527	lineto
296.5758	174.9042	lineto
297.2146	177.3708	lineto
297.7899	179.8510	lineto
298.3008	182.3432	lineto
298.7464	184.8460	lineto
299.1258	187.3579	lineto
299.4382	189.8772	lineto
299.6827	192.4027	lineto
299.8584	194.9326	lineto
299.9645	197.4655	lineto
300.0000	200.0000	lineto
stroke
newpath
[] 0 setdash 0.5000 setlinewidth
300.0000	200.0000	moveto
300.0000	234.6410	lineto
260.0000	303.9230	lineto
140.0000	303.9230	lineto
80.0000	200.0000	lineto
140.0000	96.0770	lineto
260.0000	96.0770	lineto
300.0000	165.3590	lineto
300.0000	200.0000	lineto
stroke
0 setgray
newpath
300.0000	200.0000	3.0000	0.0000	360	arc
closepath
fill stroke
newpath
300.0000	234.6410	3.0000	0.0000	360	arc
closepath
1.0000	setlinewidth
stroke
newpath
260.0000	303.9230	3.0000	0.0000	360	arc
closepath
1.0000	setlinewidth
stroke
newpath
140.0000	303.9230	3.0000	0.0000	360	arc
closepath
1.0000	setlinewidth
stroke
newpath
80.0000	200.0000	3.0000	0.0000	360	arc
closepath
1.0000	setlinewidth
stroke
newpath
140.0000	96.0770	3.0000	0.0000	360	arc
closepath
1.0000	setlinewidth
stroke
newpath
260.0000	96.0770	3.0000	0.0000	360	arc
closepath
1.0000	setlinewidth
stroke
newpath
300.0000	165.3590	3.0000	0.0000	360	arc
closepath
1.0000	setlinewidth
stroke
0 setgray
newpath
300.0000	200.0000	3.0000	0.0000	360	arc
closepath
fill stroke
showpage
%%Trailer
cleartomark
countdictstack
exch sub { end } repeat
restore
%%EOF
